…
    ## `summarise()` has grouped output by 'continent'. You can override using the
    ## `.groups` argument.

``` r
print(test401)
```

    ## # A tibble: 60 × 5
    ## # Groups:   continent [5]
    ##    continent  year     n count  prop
    ##    <fct>     <int> <int> <int> <dbl>
    ##  1 Africa     1952    52     0  0   
    ##  2 Africa     1957    52     0  0   
    ##  3 Africa     1962    52     1  1.92
    ##  4 Africa     1967    52     2  3.85
    ##  5 Africa     1972    52     2  3.85
    ##  6 Africa     1977    52     2  3.85
    ##  7 Africa     1982    52     8 15.4 
    ##  8 Africa     1987    52    12 23.1 
    ##  9 Africa     1992    52    13 25   
    ## 10 Africa     1997    52    13 25   
    ## # ℹ 50 more rows
…
